…
- Load pre-processed data.
- Load the model proposed in the paper. 
- Basic model inference: compute forward passes and layer-wise activations.

The latter is particularly useful for downstream tasks related to [mechanistic interpretability](https://en.wikipedia.org/wiki/Large_language_model#Interpretation).

### Loading the Data

The entire dataset of all available sentences use in the paper can be loaded as follows:

```julia
julia> using TrillionDollarWords
julia> load_all_sentences()
38358×8 DataFrame
   Row │ sentence_id  doc_id  date        event_type        label    sentence                           score     speaker 
       │ Int64        Int64   Date        String31          String7  String                             Float64   String? 
───────┼──────────────────────────────────────────────────────────────────────────────────────────────────────────────────
     1 │           1       1  1996-01-30  meeting minutes   neutral  The Committee then turned to a d…  0.999848  missing 
     2 │           2       1  1996-01-30  meeting minutes   neutral  Consumer spending had expanded m…  0.999584  missing 
     3 │           3       1  1996-01-30  meeting minutes   dovish   Slower growth in final sales was…  0.79604   missing 
     4 │           4       1  1996-01-30  meeting minutes   hawkish  The demand for labor was still g…  0.985618  missing 
     5 │           5       1  1996-01-30  meeting minutes   neutral  The recent data on prices and wa…  0.999152  missing 
   ⋮   │      ⋮         ⋮         ⋮              ⋮             ⋮                     ⋮                     ⋮         ⋮
 38354 │       38354      63  2015-09-17  press conference  neutral  And, remember, we’re envisioning…  0.999758  missing 
 38355 │       38355      63  2015-09-17  press conference  neutral  It is true that interest rates a…  0.999809  missing 
 38356 │       38356      63  2015-09-17  press conference  dovish   To me, the main thing that an ac…  0.992719  missing 
 38357 │       38357      63  2015-09-17  press conference  hawkish  And since income inequality is s…  0.998597  missing 
 38358 │       38358      63  2015-09-17  press conference  neutral  There have been a number of stud…  0.999632  missing 
                                                                                                        38348 rows omitted
```

It is also possible to load a larger dataset that combines all sentences with market data used in the paper:

```julia
julia> load_all_data()
524395×11 DataFrame
    Row │ sentence_id  doc_id  date        event_type       label    sentence                           score     speaker                      value    indicator  maturity 
        │ Int64        Int64   Date        String31         String7  String                             Float64   String?                      Float64  String3    String7  
────────┼───────────────────────────────────────────────────────────────────────────────────────────────────────────────────────────────────────────────────────────────────
      1 │           1       1  1996-01-30  meeting minutes  neutral  The Committee then turned to a d…  0.999848  missing                        154.7  CPI        missing  
      2 │           2       1  1996-01-30  meeting minutes  neutral  Consumer spending had expanded m…  0.999584  missing                        154.7  CPI        missing  
      3 │           3       1  1996-01-30  meeting minutes  dovish   Slower growth in final sales was…  0.79604   missing                        154.7  CPI        missing  
      4 │           4       1  1996-01-30  meeting minutes  hawkish  The demand for labor was still g…  0.985618  missing                        154.7  CPI        missing  
      5 │           5       1  1996-01-30  meeting minutes  neutral  The recent data on prices and wa…  0.999152  missing                        154.7  CPI        missing  
   ⋮    │      ⋮         ⋮         ⋮              ⋮            ⋮                     ⋮                     ⋮                   ⋮                  ⋮         ⋮         ⋮
 524391 │       29432     125  2022-10-12  speech           hawkish  If we do not see signs that infl…  0.999372  Governor Michelle W. Bowman      3.9  UST        30 Yr
 524392 │       29433     125  2022-10-12  speech           hawkish  However, if inflation starts to …  0.998617  Governor Michelle W. Bowman      3.9  UST        30 Yr
 524393 │       29434     125  2022-10-12  speech           hawkish  To bring inflation down in a con…  0.999456  Governor Michelle W. Bowman      3.9  UST        30 Yr
 524394 │       29435     125  2022-10-12  speech           hawkish  However, it is not yet clear how…  0.999502  Governor Michelle W. Bowman      3.9  UST        30 Yr
 524395 │       29436     125  2022-10-12  speech           hawkish  My general point is that inflati…  0.998271  Governor Michelle W. Bowman      3.9  UST        30 Yr
                                                                                                                                                         524385 rows omitted
```
…
julia> n = 5;

julia> queries = df[1:n, :];
julia> layerwise_activations(mod, queries)
122880×4 DataFrame
    Row │ sentence_id  activations  layer  activation_id 
        │ Int64        Float32      Int64  Int64         
────────┼────────────────────────────────────────────────
      1 │           1   0.202931        1              1
      2 │           1  -0.00693996      1              2
      3 │           1   0.12731         1              3
      4 │           1  -0.0129803       1              4
      5 │           1   0.122843        1              5
      6 │           1   0.258675        1              6
   ⋮    │      ⋮            ⋮         ⋮          ⋮
 122875 │           5   0.0957697      24           1019
 122876 │           5   1.04358        24           1020
 122877 │           5   1.71445        24           1021
 122878 │           5   1.162          24           1022
 122879 │           5  -1.58513        24           1023
 122880 │           5  -1.01479        24           1024
                                      122868 rows omitted
```
…
